{
  "project_info": {
    "project_number": "269537112424",
    "firebase_url": "https://formal-facet-191506.firebaseio.com",
    "project_id": "formal-facet-191506",
    "storage_bucket": "formal-facet-191506.appspot.com"
  },
  "client": [
    {
      "client_info": {
        "mobilesdk_app_id": "1:269537112424:android:5bf78dfd78738233",
        "android_client_info": {
          "package_name": "com.griffinkenya.android"
        }
      },
      "oauth_client": [
        {
          "client_id": "269537112424-tvgcs8kc26ja3aookikl31nemen0aais.apps.googleusercontent.com",
          "client_type": 3
        }
      ],
      "api_key": [
        {
          "current_key": "AIzaSyBV5Bm3ctZrP83BgaRcskhiPT-lj2-CDmY"
        }
      ],
      "services": {
        "appinvite_service": {
          "other_platform_oauth_client": [
            {
              "client_id": "269537112424-lj2dtjcfifck2lvvljbk5n25nbp7qreg.apps.googleusercontent.com",
              "client_type": 3
            },
            {
              "client_id": "269537112424-4qvnr7be7q0p1m4vj2sagufopc9t441c.apps.googleusercontent.com",
              "client_type": 2,
              "ios_info": {
                "bundle_id": "com.givinalis.griffinev"
              }
            }
          ]
        }
      }
    },
    {
      "client_info": {
        "mobilesdk_app_id": "1:269537112424:android:b6d0b1d55a7b593feaa6dd",
        "android_client_info": {
          "package_name": "com.griffinkenya.matatu"
        }
      },
      "oauth_client": [
        {
          "client_id": "269537112424-dam969d55oqi0unk6ahcokmv72nvk7jl.apps.googleusercontent.com",
          "client_type": 1,
          "android_info": {
            "package_name": "com.griffinkenya.matatu",
            "certificate_hash": "5b2693b12a4d0e373540e36563370445247a5d1d"
          }
        },
        {
          "client_id": "269537112424-tvgcs8kc26ja3aookikl31nemen0aais.apps.googleusercontent.com",
          "client_type": 3
        }
      ],
      "api_key": [
        {
          "current_key": "AIzaSyBV5Bm3ctZrP83BgaRcskhiPT-lj2-CDmY"
        }
      ],
      "services": {
        "appinvite_service": {
          "other_platform_oauth_client": [
            {
              "client_id": "269537112424-lj2dtjcfifck2lvvljbk5n25nbp7qreg.apps.googleusercontent.com",
              "client_type": 3
            },
            {
              "client_id": "269537112424-4qvnr7be7q0p1m4vj2sagufopc9t441c.apps.googleusercontent.com",
              "client_type": 2,
              "ios_info": {
                "bundle_id": "com.givinalis.griffinev"
              }
            }
          ]
        }
      }
    }
  ],
  "configuration_version": "1"
}